What the Package Does (One Line, Title Case) • tidyclust
…
Once you have a fitted tidyclust object, you can do a number of things. predict() returns the cluster a new observation belongs to

predict(kmeans_spec_fit, mtcars[1:4, ])
#> # A tibble: 4 × 1
#>   .pred_cluster
#>   <fct>        
#> 1 Cluster_1    
#> 2 Cluster_1    
#> 3 Cluster_1    
#> 4 Cluster_2

extract_cluster_assignment() returns the cluster assignments of the training observations

extract_cluster_assignment(kmeans_spec_fit)
#> # A tibble: 32 × 1
#>    .cluster 
#>    <fct>    
#>  1 Cluster_1
#>  2 Cluster_1
#>  3 Cluster_1
#>  4 Cluster_2
#>  5 Cluster_3
#>  6 Cluster_2
#>  7 Cluster_3
#>  8 Cluster_1
#>  9 Cluster_1
#> 10 Cluster_1
#> # … with 22 more rows
…
