…
`extract_cluster_assignment()` returns the cluster assignments of the
training observations

``` r
extract_cluster_assignment(kmeans_spec_fit)
#> # A tibble: 32 × 1
#>    .cluster
#>    <fct>   
#>  1 C1      
#>  2 C1      
#>  3 C2      
#>  4 C1      
#>  5 C3      
#>  6 C1      
#>  7 C3      
#>  8 C2      
#>  9 C2      
#> 10 C1      
#> # … with 22 more rows
```
…
