…
[`extract_cluster_assignment()`](https://tidyclust.tidymodels.org/dev/reference/extract_cluster_assignment.md)
returns the cluster assignments of the training observations

``` r
extract_cluster_assignment(kmeans_spec_fit)
#> # A tibble: 32 × 1
#>    .cluster 
#>    <fct>    
#>  1 Cluster_1
#>  2 Cluster_1
#>  3 Cluster_2
#>  4 Cluster_1
#>  5 Cluster_3
#>  6 Cluster_1
#>  7 Cluster_3
#>  8 Cluster_2
#>  9 Cluster_2
#> 10 Cluster_1
#> # ℹ 22 more rows
```
…
