…
## Cluster assignments and centers

The cluster assignments for the training data can be accessed using the
[`extract_cluster_assignment()`](https://tidyclust.tidymodels.org/dev/reference/extract_cluster_assignment.md)
function.

``` r
gm_clust_fit %>% extract_cluster_assignment()
#> # A tibble: 342 × 1
#>    .cluster 
#>    <fct>    
#>  1 Cluster_1
#>  2 Cluster_1
#>  3 Cluster_2
#>  4 Cluster_1
#>  5 Cluster_2
#>  6 Cluster_1
#>  7 Cluster_2
#>  8 Cluster_1
#>  9 Cluster_1
#> 10 Cluster_3
#> # ℹ 332 more rows
```
…
