…
- *centroid method:* The new observation is assigned to the cluster with
  the closest centroid, as in prediction for `k_means`.

- *Ward’s method:* The new observation is assigned to the cluster with
  the smallest increase in **error sum of squares (ESS)** due to the new
  addition. The ESS is computed as the sum of squared distances between
  observations in a cluster, and the centroid of the cluster.

``` r

hc_preds <- hc_fit |> predict(penguins)

hc_preds
#> # A tibble: 342 × 1
#>    .pred_cluster
#>    <fct>        
#>  1 Cluster_1    
#>  2 Cluster_1    
#>  3 Cluster_1    
#>  4 Cluster_2    
#>  5 Cluster_3    
#>  6 Cluster_3    
#>  7 Cluster_2    
#>  8 Cluster_2    
#>  9 Cluster_1    
#> 10 Cluster_2    
#> # ℹ 332 more rows
```

It’s important to note that there is no guarantee that
[`predict()`](https://rdrr.io/r/stats/predict.html) on the training data
will produce the same results as `extract_cluster_assignments()`. The
process by which clusters are created during the agglomerations results
in a particular partition; but if a training observation is treated as
new data, it is predicted in the same manner as truly new information.

``` r

bind_cols(
  hc_preds,
  extract_cluster_assignment(hc_fit)
)
#> # A tibble: 342 × 2
#>    .pred_cluster .cluster 
#>    <fct>         <fct>    
#>  1 Cluster_1     Cluster_1
#>  2 Cluster_1     Cluster_1
#>  3 Cluster_1     Cluster_1
#>  4 Cluster_2     Cluster_2
#>  5 Cluster_3     Cluster_2
#>  6 Cluster_3     Cluster_2
#>  7 Cluster_2     Cluster_2
#>  8 Cluster_2     Cluster_2
#>  9 Cluster_1     Cluster_1
#> 10 Cluster_2     Cluster_2
#> # ℹ 332 more rows
```
…
This function expects two vectors of cluster labels as input. The first
is the label that will be matched, and the second is the label that will
be recoded to the first.

If we are not trying to simply match names across two same-size
clusterings, the option `one_to_one` must be set to `FALSE`.

``` r

reconcile_clusterings_mapping(
  primary = hc_preds$.pred_cluster,
  alternative = km_preds$.pred_cluster,
  one_to_one = FALSE
)
#> # A tibble: 342 × 3
#>    primary alt   alt_recoded
#>    <fct>   <fct> <chr>      
#>  1 HC_1    KM_1  HC_1       
#>  2 HC_1    KM_2  HC_1       
#>  3 HC_1    KM_2  HC_1       
#>  4 HC_2    KM_3  HC_2       
#>  5 HC_3    KM_4  HC_2       
#>  6 HC_3    KM_4  HC_2       
#>  7 HC_2    KM_3  HC_2       
#>  8 HC_2    KM_5  HC_2       
#>  9 HC_1    KM_2  HC_1       
#> 10 HC_2    KM_4  HC_2       
#> # ℹ 332 more rows
```
…
