…
## Cluster assignments and centers

The primary objective of fitting a clustering model is typically to
assign observations to clusters. To access these, use
[`extract_cluster_assignment()`](https://tidyclust.tidymodels.org/dev/reference/extract_cluster_assignment.md)
function:

``` r
kmeans_fit |>
  extract_cluster_assignment()
#> # A tibble: 342 × 1
#>    .cluster 
#>    <fct>    
#>  1 Cluster_1
#>  2 Cluster_1
#>  3 Cluster_1
#>  4 Cluster_2
#>  5 Cluster_3
#>  6 Cluster_3
#>  7 Cluster_2
#>  8 Cluster_2
#>  9 Cluster_1
#> 10 Cluster_3
#> # ℹ 332 more rows
```

Note that this function renames clusters in accordance with the standard
`tidyclust` naming convention and ordering: clusters are named
“Cluster_1”, “Cluster_2”, etc. and are numbered by the order they appear
in the rows of the training dataset.

To reconcile these standardized cluster labels with the engine output,
refer back to the full model fit summary:

``` r
tibble(
  orig_labels = kmeans_summary$orig_labels,
  standard_labels = kmeans_summary$cluster_assignments
)
#> # A tibble: 342 × 2
#>    orig_labels standard_labels
#>          <int> <fct>          
#>  1           1 Cluster_1      
#>  2           1 Cluster_1      
#>  3           1 Cluster_1      
#>  4           2 Cluster_2      
#>  5           3 Cluster_3      
#>  6           3 Cluster_3      
#>  7           2 Cluster_2      
#>  8           2 Cluster_2      
#>  9           1 Cluster_1      
#> 10           3 Cluster_3      
#> # ℹ 332 more rows
```
…
kmeans_fit |>
  predict(new_penguin)
#> # A tibble: 1 × 1
#>   .pred_cluster
#>   <fct>        
#> 1 Cluster_2
```

To attach all predictions to a dataset as a column, use
[`augment()`](https://generics.r-lib.org/reference/augment.html):

``` r
kmeans_fit |>
  augment(penguins)
#> # A tibble: 342 × 3
#>    bill_length_mm bill_depth_mm .pred_cluster
#>             <dbl>         <dbl> <fct>        
#>  1           39.6          20.7 Cluster_1    
#>  2           36.2          17.3 Cluster_1    
#>  3           32.1          15.5 Cluster_1    
#>  4           47.6          18.3 Cluster_2    
#>  5           52            18.1 Cluster_3    
#>  6           52.7          19.8 Cluster_3    
#>  7           45.2          16.4 Cluster_2    
#>  8           46.6          14.2 Cluster_2    
#>  9           34.4          18.4 Cluster_1    
#> 10           49.8          15.9 Cluster_3    
#> # ℹ 332 more rows
```
…
