…
### 3. Extract results

[`extract_cluster_assignment()`](https://tidyclust.tidymodels.org/dev/reference/extract_cluster_assignment.md)
returns the cluster label for each training observation:

``` r

extract_cluster_assignment(kmeans_fit)
#> # A tibble: 32 × 1
#>    .cluster 
#>    <fct>    
#>  1 Cluster_1
#>  2 Cluster_1
#>  3 Cluster_2
#>  4 Cluster_1
#>  5 Cluster_3
#>  6 Cluster_1
#>  7 Cluster_3
#>  8 Cluster_2
#>  9 Cluster_2
#> 10 Cluster_1
#> # ℹ 22 more rows
```
…
[`augment()`](https://generics.r-lib.org/reference/augment.html) appends
the cluster assignment to the original data:

``` r

augment(kmeans_fit, new_data = mtcars)
#> # A tibble: 32 × 12
#>      mpg   cyl  disp    hp  drat    wt  qsec    vs    am  gear  carb
#>    <dbl> <dbl> <dbl> <dbl> <dbl> <dbl> <dbl> <dbl> <dbl> <dbl> <dbl>
#>  1  21       6  160    110  3.9   2.62  16.5     0     1     4     4
#>  2  21       6  160    110  3.9   2.88  17.0     0     1     4     4
#>  3  22.8     4  108     93  3.85  2.32  18.6     1     1     4     1
#>  4  21.4     6  258    110  3.08  3.22  19.4     1     0     3     1
#>  5  18.7     8  360    175  3.15  3.44  17.0     0     0     3     2
#>  6  18.1     6  225    105  2.76  3.46  20.2     1     0     3     1
#>  7  14.3     8  360    245  3.21  3.57  15.8     0     0     3     4
#>  8  24.4     4  147.    62  3.69  3.19  20       1     0     4     2
#>  9  22.8     4  141.    95  3.92  3.15  22.9     1     0     4     2
#> 10  19.2     6  168.   123  3.92  3.44  18.3     1     0     4     4
#> # ℹ 22 more rows
#> # ℹ 1 more variable: .pred_cluster <fct>
```
…
The same workflow applies to
[`hier_clust()`](https://tidyclust.tidymodels.org/dev/reference/hier_clust.md).
The number of clusters is cut from the dendrogram at fit time using
`num_clusters`:

``` r

hclust_spec <- hier_clust(num_clusters = 3) |>
  set_engine("stats")

hclust_fit <- fit(hclust_spec, ~., data = mtcars)

extract_cluster_assignment(hclust_fit)
#> # A tibble: 32 × 1
#>    .cluster 
#>    <fct>    
#>  1 Cluster_1
#>  2 Cluster_1
#>  3 Cluster_1
#>  4 Cluster_2
#>  5 Cluster_3
#>  6 Cluster_2
#>  7 Cluster_3
#>  8 Cluster_1
#>  9 Cluster_1
#> 10 Cluster_1
#> # ℹ 22 more rows
…
rec <- recipe(~., data = mtcars) |>
  step_normalize(all_predictors())

wf <- workflow() |>
  add_recipe(rec) |>
  add_model(k_means(num_clusters = 3))

wf_fit <- fit(wf, data = mtcars)
augment(wf_fit, new_data = mtcars)
#> # A tibble: 32 × 12
#>    .pred_cluster   mpg   cyl  disp    hp  drat    wt  qsec    vs    am
#>  * <fct>         <dbl> <dbl> <dbl> <dbl> <dbl> <dbl> <dbl> <dbl> <dbl>
#>  1 Cluster_1      21       6  160    110  3.9   2.62  16.5     0     1
#>  2 Cluster_1      21       6  160    110  3.9   2.88  17.0     0     1
#>  3 Cluster_1      22.8     4  108     93  3.85  2.32  18.6     1     1
#>  4 Cluster_2      21.4     6  258    110  3.08  3.22  19.4     1     0
#>  5 Cluster_3      18.7     8  360    175  3.15  3.44  17.0     0     0
#>  6 Cluster_2      18.1     6  225    105  2.76  3.46  20.2     1     0
#>  7 Cluster_3      14.3     8  360    245  3.21  3.57  15.8     0     0
#>  8 Cluster_2      24.4     4  147.    62  3.69  3.19  20       1     0
#>  9 Cluster_2      22.8     4  141.    95  3.92  3.15  22.9     1     0
#> 10 Cluster_2      19.2     6  168.   123  3.92  3.44  18.3     1     0
#> # ℹ 22 more rows
#> # ℹ 2 more variables: gear <dbl>, carb <dbl>
```
…
