…
``` r
res_metrics <- res |> collect_metrics()
res_metrics
#> # A tibble: 30 × 7
#>    num_clusters .metric        .estimator    mean     n std_err .config
#>           <int> <chr>          <chr>        <dbl> <int>   <dbl> <chr>  
#>  1            1 sse_ratio      standard   1   e+0     5 0       pre0_m…
#>  2            1 sse_total      standard   2.25e+3     5 1.20e+2 pre0_m…
#>  3            1 sse_within_to… standard   2.25e+3     5 1.20e+2 pre0_m…
#>  4            2 sse_ratio      standard   3.26e-1     5 5.40e-3 pre0_m…
#>  5            2 sse_total      standard   2.25e+3     5 1.20e+2 pre0_m…
#>  6            2 sse_within_to… standard   7.35e+2     5 4.78e+1 pre0_m…
#>  7            3 sse_ratio      standard   2.04e-1     5 8.36e-3 pre0_m…
#>  8            3 sse_total      standard   2.25e+3     5 1.20e+2 pre0_m…
#>  9            3 sse_within_to… standard   4.60e+2     5 3.49e+1 pre0_m…
#> 10            4 sse_ratio      standard   1.55e-1     5 8.07e-3 pre0_m…
#> # ℹ 20 more rows
```
…
