Model predictions — predict.cluster_fit • tidyclust
…
    See also

    extract_cluster_assignment() extract_centroids()

    Examples

kmeans_spec <- k_means(num_clusters = 5) %>%
  set_engine("stats")

kmeans_fit <- fit(kmeans_spec, ~., mtcars)

kmeans_fit %>%
  predict(new_data = mtcars)
#> # A tibble: 32 × 1
#>    .pred_cluster
#>    <fct>        
#>  1 Cluster_1    
#>  2 Cluster_1    
#>  3 Cluster_2    
#>  4 Cluster_3    
#>  5 Cluster_4    
#>  6 Cluster_1    
#>  7 Cluster_4    
#>  8 Cluster_2    
#>  9 Cluster_2    
#> 10 Cluster_1    
#> # ℹ 22 more rows
…
