…
[`extract_centroids()`](https://tidyclust.tidymodels.org/dev/reference/extract_centroids.md)
[`predict.cluster_fit()`](https://tidyclust.tidymodels.org/dev/reference/predict.cluster_fit.md)

## Examples

``` r
kmeans_spec <- k_means(num_clusters = 5) |>
  set_engine("stats")

kmeans_fit <- fit(kmeans_spec, ~., mtcars)

kmeans_fit |>
  extract_cluster_assignment()
#> # A tibble: 32 × 1
#>    .cluster 
#>    <fct>    
#>  1 Cluster_1
#>  2 Cluster_1
#>  3 Cluster_1
#>  4 Cluster_2
#>  5 Cluster_3
#>  6 Cluster_2
#>  7 Cluster_4
#>  8 Cluster_1
#>  9 Cluster_1
#> 10 Cluster_1
#> # ℹ 22 more rows

kmeans_fit |>
  extract_cluster_assignment(prefix = "C_")
#> # A tibble: 32 × 1
#>    .cluster
#>    <fct>   
#>  1 C_1     
#>  2 C_1     
#>  3 C_1     
#>  4 C_2     
#>  5 C_3     
#>  6 C_2     
#>  7 C_4     
#>  8 C_1     
#>  9 C_1     
#> 10 C_1     
#> # ℹ 22 more rows

kmeans_fit |>
  extract_cluster_assignment(labels = c("A", "B", "C", "D", "E"))
#> # A tibble: 32 × 1
#>    .cluster
#>    <fct>   
#>  1 A       
#>  2 A       
#>  3 A       
#>  4 B       
#>  5 C       
#>  6 B       
#>  7 D       
#>  8 A       
#>  9 A       
#> 10 A       
#> # ℹ 22 more rows

# Some models such as `hier_clust()` fits in such a way that you can specify
# the number of clusters after the model is fit
hclust_spec <- hier_clust() |>
  set_engine("stats")

hclust_fit <- fit(hclust_spec, ~., mtcars)

hclust_fit |>
  extract_cluster_assignment(num_clusters = 2)
#> # A tibble: 32 × 1
#>    .cluster 
#>    <fct>    
#>  1 Cluster_1
#>  2 Cluster_1
#>  3 Cluster_1
#>  4 Cluster_1
#>  5 Cluster_2
#>  6 Cluster_1
#>  7 Cluster_2
#>  8 Cluster_1
#>  9 Cluster_1
#> 10 Cluster_1
#> # ℹ 22 more rows

hclust_fit |>
  extract_cluster_assignment(cut_height = 250)
#> # A tibble: 32 × 1
#>    .cluster 
#>    <fct>    
#>  1 Cluster_1
#>  2 Cluster_1
#>  3 Cluster_1
#>  4 Cluster_2
#>  5 Cluster_3
#>  6 Cluster_2
#>  7 Cluster_3
#>  8 Cluster_1
#>  9 Cluster_1
#> 10 Cluster_1
#> # ℹ 22 more rows
```
