…
[`extract_cluster_assignment()`](https://tidyclust.tidymodels.org/dev/reference/extract_cluster_assignment.md)
[`extract_centroids()`](https://tidyclust.tidymodels.org/dev/reference/extract_centroids.md)

## Examples

``` r
kmeans_spec <- k_means(num_clusters = 5) |>
  set_engine("stats")

kmeans_fit <- fit(kmeans_spec, ~., mtcars)

kmeans_fit |>
  predict(new_data = mtcars)
#> # A tibble: 32 × 1
#>    .pred_cluster
#>    <fct>        
#>  1 Cluster_1    
#>  2 Cluster_1    
#>  3 Cluster_2    
#>  4 Cluster_1    
#>  5 Cluster_3    
#>  6 Cluster_1    
#>  7 Cluster_3    
#>  8 Cluster_2    
#>  9 Cluster_2    
#> 10 Cluster_1    
#> # ℹ 22 more rows
…
