kmeans_metrics • celery
…
# kmeans_fit %>%
#   augment(penguins)

penguins <- penguins %>% drop_na()
  
dists <- penguins %>%
  select(contains("bill")) %>%
  dist() %>%
  as.matrix()

silhouettes(dists, predict(kmeans_fit, penguins)$.pred_cluster) 
#> # A tibble: 333 × 3
#>    cluster   neighbor  sil_width
#>    <fct>     <fct>         <dbl>
#>  1 Cluster_1 Cluster_3     0.675
#>  2 Cluster_1 Cluster_3     0.606
#>  3 Cluster_1 Cluster_3     0.547
#>  4 Cluster_1 Cluster_3     0.692
#>  5 Cluster_1 Cluster_3     0.592
#>  6 Cluster_1 Cluster_3     0.671
#>  7 Cluster_1 Cluster_3     0.647
#>  8 Cluster_1 Cluster_3     0.370
#>  9 Cluster_1 Cluster_3     0.589
#> 10 Cluster_1 Cluster_3     0.577
#> # … with 323 more rows
…
