kmeans • tidyclust
…
Cluster assignments and predictions

Of the information provided from the model fit, the primary objective is typically the cluster assignments of each observation. These can be accessed via the extract_cluster_assignment() function:

kmeans_spec_fit %>%
  extract_cluster_assignment()
#> # A tibble: 342 × 1
#>    .cluster 
#>    <fct>    
#>  1 Cluster_1
#>  2 Cluster_1
#>  3 Cluster_1
#>  4 Cluster_1
#>  5 Cluster_1
#>  6 Cluster_1
#>  7 Cluster_1
#>  8 Cluster_1
#>  9 Cluster_1
#> 10 Cluster_1
#> # … with 332 more rows
…
