Tuning Cluster Models • tidyclust
…
res
#> # Tuning results
#> # 5-fold cross-validation 
#> # A tibble: 5 × 6
#>   splits           id    .metrics          .notes   .extracts .predictions
#>   <list>           <chr> <list>            <list>   <list>    <list>      
#> 1 <split [266/67]> Fold1 <tibble [30 × 5]> <tibble> <tibble>  <tibble>    
#> 2 <split [266/67]> Fold2 <tibble [30 × 5]> <tibble> <tibble>  <tibble>    
#> 3 <split [266/67]> Fold3 <tibble [30 × 5]> <tibble> <tibble>  <tibble>    
#> 4 <split [267/66]> Fold4 <tibble [30 × 5]> <tibble> <tibble>  <tibble>    
#> 5 <split [267/66]> Fold5 <tibble [30 × 5]> <tibble> <tibble>  <tibble>

res_metrics <- res %>% collect_metrics()
res_metrics
#> # A tibble: 30 × 7
#>    num_clusters .metric          .estimator     mean     n std_err .config
#>           <int> <chr>            <chr>         <dbl> <int>   <dbl> <chr>  
#>  1            1 sse_ratio        standard      1         5 0       Prepro…
#>  2            1 sse_total        standard   8971.        5 1.19e+2 Prepro…
#>  3            1 sse_within_total standard   8971.        5 1.19e+2 Prepro…
#>  4            2 sse_ratio        standard      0.321     5 1.41e-3 Prepro…
#>  5            2 sse_total        standard   8971.        5 1.19e+2 Prepro…
#>  6            2 sse_within_total standard   2885.        5 4.73e+1 Prepro…
#>  7            3 sse_ratio        standard      0.202     5 2.21e-3 Prepro…
#>  8            3 sse_total        standard   8971.        5 1.19e+2 Prepro…
#>  9            3 sse_within_total standard   1809.        5 3.47e+1 Prepro…
#> 10            4 sse_ratio        standard      0.160     5 5.79e-3 Prepro…
#> # ℹ 20 more rows
…
